{
  "packages": [
    "packages/*"
  ],
  "version": "1.2.6",
  "command": {
    "version": {
      "allowBranch": "master",
      "message": "chore(release): publish %v",
      "conventionalCommits": true,
      "exact": true,
      "createRelease": "gitlab",
      "verifyAccess": false
    }
  }
}
